\beamer@sectionintoc {1}{Introduction}{2}{0}{1}
\beamer@sectionintoc {2}{Mathematical model}{17}{0}{2}
\beamer@sectionintoc {3}{Well-balanced schemes}{20}{0}{3}
\beamer@sectionintoc {4}{augmented model}{26}{0}{4}
\beamer@sectionintoc {5}{Scheme}{31}{0}{5}
