\BOOKMARK [2][]{Outline0.1}{Introduction}{}% 1
\BOOKMARK [2][]{Outline0.2}{Riemann problem}{}% 2
\BOOKMARK [2][]{Outline0.3}{Numerical Method}{}% 3
\BOOKMARK [2][]{Outline0.4}{Higher Order schemes}{}% 4
\BOOKMARK [2][]{Outline0.5}{Time Integration}{}% 5
