\beamer@sectionintoc {1}{Introduction}{2}{0}{1}
\beamer@sectionintoc {2}{Riemann problem}{11}{0}{2}
\beamer@sectionintoc {3}{Numerical Method}{18}{0}{3}
\beamer@sectionintoc {4}{Higher Order schemes}{37}{0}{4}
\beamer@sectionintoc {5}{Time Integration}{58}{0}{5}
